{
  "name": "Device Events in Real-Time",
  "description": "Plugin adds a tab to Device Details with events  displayed in real-time",
  "category": "Examples",
  "icon": "bell",
  "color": "#F2DF0F",
  "ngModules": [
    "myapp.deviceEventsRealTime"
  ],
  "js": [
    "index.js",
    "controllers/deviceEventsRealTimeCtrl.js"
  ]
}
