{
  "name": "Device Details - Contact",
  "description": "Plugin adds a Contact tab to Device Details view",
  "category": "Examples",
  "icon": "bell",
  "color": "#F2DF0F",
  "ngModules": [
    "myapp.deviceContact"
  ],
  "js": [
    "index.js",
    "controllers/deviceContact.js"
  ]
}
